temphtml_out
…
#plot number of observations at each depth per year to see if there are any weird patterns
ttemp %>% 
  count(depth) %>% 
  arrange(desc(n)) 

## # A tibble: 35 x 2
##    depth     n
##    <dbl> <int>
##  1     3 34293
##  2     5 34292
##  3     1 34291
##  4     4 34284
##  5     6 34282
##  6     2 34278
##  7    12 34006
##  8    14 34004
##  9    16 34004
## 10    13 34001
## # ... with 25 more rows
…
